<svg version="1.1" class="wsc-logo" xmlns="http://www.w3.org/2000/svg" xmlns:xlink="http://www.w3.org/1999/xlink" x="0px" y="0px"
	 viewBox="0 0 722 169" style="enable-background:new 0 0 722 169;" xml:space="preserve">
<style type="text/css">
	.st0{clip-path:url(#SVGID_2_);fill:url(#SVGID_3_);}
	.st1{fill:#1DB1B8;}
	.st2{fill:#444444;}
</style>
<g>
	<g>
		<defs>
			<path id="SVGID_1_" d="M72.5,17C72.6,17,72.6,17,72.5,17c0,0-0.1,0-0.1,0C72.4,17,72.5,17,72.5,17 M70.6,16.7l-20.2,6.8
				c-2.2,0.7-3.6,2.8-3.6,5V135L9.8,122.8V45.9l14.2-4.8v58.7c-2.8,1.7-4.6,4.7-4.6,8c0,5.1,4.2,9.3,9.3,9.3s9.3-4.2,9.3-9.3
				c0-3.6-2-6.8-5.3-8.4v-62c0-2-1-3.9-2.6-5c-1.1-0.8-2.3-1.2-3.6-1.2c-0.7,0-1.3,0.1-2,0.3L4.6,38.4c-2.2,0.7-3.6,2.8-3.6,5v80.3
				c0,3.3,2.1,6.2,5.2,7.2l35.9,11.8l10,3.5c0.3,0.1,0.6,0.2,0.9,0.2c1.5,0,2.6-1.2,2.6-2.6V31.1l14.2-4.8v98c0,1.4,0.9,2.6,2.2,3
				l27.5,8.7c0.3,0.1,0.6,0.1,0.9,0.1c1.6,0,3-1.3,3-3V45.2c2.9-1.7,4.7-4.7,4.7-8.1c0-5.1-4.2-9.3-9.3-9.3s-9.3,4.2-9.3,9.3
				c0,3.5,2,6.7,5.1,8.3v79.6l-15.9-5V22.6c0-2-1-3.9-2.6-5c-1.1-0.8-2.3-1.2-3.6-1.2C71.9,16.4,71.2,16.5,70.6,16.7 M118.5,1.3
				L98.2,8.1c-2.2,0.7-3.6,2.8-3.6,5l0,4.2c0,0.3,0.1,0.6,0.3,0.8c0.2,0.2,0.5,0.3,0.8,0.3c0.1,0,0.2,0,0.4-0.1l21.7-7.5v147.5
				l-36-11.8c-0.6-4.7-4.5-8.2-9.2-8.2c-5.1,0-9.3,4.2-9.3,9.3c0,5.1,4.2,9.3,9.3,9.3c2.2,0,4.3-0.8,6-2.2l39,12.8
				c0.7,0.2,1.4,0.3,2.2,0.3c1.4,0,2.9-0.5,4.1-1.3c1.8-1.3,2.9-3.4,2.9-5.6V7.2c0-2-1-3.9-2.6-5c-1-0.8-2.3-1.2-3.6-1.2
				C119.8,1,119.1,1.1,118.5,1.3"/>
		</defs>
		<clipPath id="SVGID_2_">
			<use xlink:href="#SVGID_1_"  style="overflow:visible;"/>
		</clipPath>
		
			<linearGradient id="SVGID_3_" gradientUnits="userSpaceOnUse" x1="-0.1409" y1="192.2836" x2="0.8591" y2="192.2836" gradientTransform="matrix(124.1958 124.1958 124.1958 -124.1958 -23852.5645 23929.7598)">
			<stop  offset="0" style="stop-color:#28CBC5"/>
			<stop  offset="0.3232" style="stop-color:#28CBC5"/>
			<stop  offset="0.788" style="stop-color:#01557F"/>
			<stop  offset="1" style="stop-color:#01557F"/>
		</linearGradient>
		<polygon class="st0" points="63.8,-61.8 210.1,84.5 63.8,230.8 -82.5,84.5 		"/>
	</g>
	<g>
		<polygon class="st1" points="551.1,137.2 551.1,159.9 546.4,159.9 546.4,150.3 536.3,150.3 536.3,159.9 531.6,159.9 531.6,137.2 
			536.3,137.2 536.3,146.5 546.4,146.5 546.4,137.2 		"/>
		<polygon class="st1" points="585.7,156.1 585.7,159.9 568.1,159.9 568.1,137.2 585.2,137.2 585.2,141 572.9,141 572.9,146.6 
			582.6,146.6 582.6,150.3 572.9,150.3 572.9,156.1 		"/>
		<path class="st1" d="M615,154.4h-8.8l-1.9,5.5h-4.9l8.3-22.7h5.7l8.3,22.7h-4.9L615,154.4z M613.9,150.9l-2.1-6.4l-1-3.4h-0.1
			l-1,3.4l-2.2,6.5H613.9z"/>
		<polygon class="st1" points="653.3,156.1 653.3,159.9 636.5,159.9 636.5,137.2 641.3,137.2 641.3,156.1 		"/>
		<polygon class="st1" points="683.2,141 675.5,141 675.5,159.9 670.8,159.9 670.8,141 663.1,141 663.1,137.2 683.2,137.2 		"/>
		<polygon class="st1" points="717.6,137.2 717.6,159.9 712.8,159.9 712.8,150.3 702.8,150.3 702.8,159.9 698.1,159.9 698.1,137.2 
			702.8,137.2 702.8,146.5 712.8,146.5 712.8,137.2 		"/>
	</g>
	<g>
		<path class="st2" d="M170.5,50.7h9.9c0.4,0,0.8,0.3,1,0.7L193.7,91c1.7,5.3,3.1,11.1,3.1,11.1s1.4-5.8,2.8-11.1l10.3-39.3
			c0.2-0.6,0.7-1,1.3-1h10.8c0.6,0,1.1,0.4,1.3,1L233.4,91c1.4,5.4,2.7,11.1,2.7,11.1s1.5-5.8,3.2-11.1l12.5-39.6
			c0.1-0.4,0.5-0.7,1-0.7h9.9c0.7,0,1.1,0.6,0.9,1.3l-20.6,64.8c-0.2,0.6-0.7,0.9-1.3,0.9h-10.4c-0.8,0-1.4-0.5-1.6-1.2L219.2,79
			c-1.5-5.8-2.7-13.2-2.7-13.2s-1.1,7.4-2.7,13.2l-10.4,37.5c-0.2,0.7-0.9,1.2-1.6,1.2h-10.5c-0.6,0-1.1-0.4-1.3-0.9L169.5,52
			C169.3,51.4,169.8,50.7,170.5,50.7"/>
		<path class="st2" d="M270.8,50.7h10c0.4,0,0.7,0.3,0.7,0.7v22.4c3.7-5.7,9.6-8.3,16.4-8.3c13.4,0,18.4,8.8,18.4,22.8v28.5
			c0,0.4-0.3,0.7-0.7,0.7h-10c-0.4,0-0.7-0.3-0.7-0.7V89.7c0-8.4-2.3-13.3-10.9-13.2c-6.9,0.1-12.4,5.8-12.4,12.7v27.6
			c0,0.4-0.3,0.7-0.7,0.7h-10c-0.4,0-0.7-0.3-0.7-0.7V51.5C270.1,51,270.4,50.7,270.8,50.7"/>
		<path class="st2" d="M326,53.5c-1-5,3.5-9.5,8.6-8.1c2.4,0.6,4.3,2.6,4.9,5c1.3,5.1-3.1,9.6-8.1,8.6
			C328.7,58.4,326.5,56.2,326,53.5 M328.5,66.5h8.6c0.8,0,1.4,0.6,1.4,1.4v48.2c0,0.8-0.6,1.4-1.4,1.4h-8.6c-0.8,0-1.4-0.6-1.4-1.4
			V67.9C327.1,67.1,327.7,66.5,328.5,66.5"/>
		<path class="st2" d="M354.6,101.1V75.9H348c-0.5,0-0.9-0.4-0.9-0.9v-7.5c0-0.5,0.4-0.9,0.9-0.9h6.6v-9c0-0.6,0.4-1.1,1-1.2l9.5-2
			c0.5-0.1,0.9,0.3,0.9,0.8v11.4h14.4c0.5,0,0.9,0.4,0.9,0.9v7.5c0,0.5-0.4,0.9-0.9,0.9h-14.4v25.6c0,5.5,2.6,7.2,5.5,7.2
			c2.8,0,5.4-1.2,6.6-2c0.4-0.3,1-0.1,1.2,0.4l2.6,6.5c0.3,0.7,0,1.5-0.6,1.9c-2.5,1.5-6.2,3.1-11.2,3.1
			C359.7,118.6,354.6,112.9,354.6,101.1"/>
		<path class="st2" d="M385,92.1c0-14.6,11.4-26.6,26.3-26.6c13.6,0,24.5,11.9,24.5,26.2c0,1.2-0.1,2.3-0.2,3.2
			c-0.1,0.7-0.7,1.2-1.4,1.2h-37.4c1.6,8.1,8.2,12.4,15.9,12.4c4.9,0,10-1.4,14-4c0.4-0.2,0.8-0.1,1,0.3l3.9,7.2
			c0.2,0.3,0.1,0.7-0.2,0.9c-5.7,3.7-12.2,5.7-18.8,5.7C398,118.6,385,108.9,385,92.1 M424.7,87.6c-1.1-7.3-7-12.2-14-12.2
			c-6.6,0-12.4,4.8-13.9,12.2H424.7z"/>
		<path class="st2" d="M441.1,108l3.4-6.7c0.4-0.8,1.3-1,2-0.5c5.2,3.9,11.7,6.8,20.9,6.8c7.2,0,14.4-3.4,14.4-9.5
			c0-6.1-6.9-7.9-13.7-9.6c-12.3-2.9-24.9-6.8-24.9-20.1c0-12.5,11.9-18.9,24.2-18.9c9,0,16.1,2.4,22.5,6.4c0.7,0.4,1,1.3,0.6,2.1
			l-3.2,6.4c-0.4,0.8-1.4,1.1-2.2,0.7c-5.5-3.2-11.3-4.7-17.6-4.7c-4.4,0-12.1,1.9-12.1,7.9c0,5.4,6,7.1,14,9.1
			c12.7,3,24.9,7.7,24.9,20.7c0,14-13.8,20.3-27,20.3c-13.7,0-21.4-4.9-25.9-8.9C441,109.3,440.8,108.6,441.1,108"/>
		<path class="st2" d="M504.3,66.5h8.3c0.7,0,1.3,0.6,1.3,1.3v5.1c4.1-4.7,10.4-7.4,17.5-7.4c14,0,23.6,11.9,23.6,26.5
			c0,14.7-9.6,26.6-23.6,26.6c-6.9,0-13-2.8-17-7.5v19.9c0,0.7-0.6,1.3-1.3,1.3h-8.8c-0.7,0-1.3-0.6-1.3-1.3V67.8
			C503,67.1,503.6,66.5,504.3,66.5 M543.4,92c0-9-6.2-15.5-14.8-15.5c-8,0-14.1,6.4-14.1,15.5c0,9,6,15.6,14.1,15.6
			C537.2,107.5,543.4,100.9,543.4,92"/>
		<path class="st2" d="M561.2,92.1c0-14.7,9.6-26.6,23.6-26.6c6.9,0,13,2.8,17,7.5v-5.2c0-0.7,0.6-1.3,1.3-1.3h8.8
			c0.7,0,1.3,0.6,1.3,1.3v48.4c0,0.7-0.6,1.3-1.3,1.3h-8.8c-0.7,0-1.3-0.6-1.3-1.3v-5.1c-4,4.7-10.1,7.4-17,7.4
			C570.8,118.6,561.2,106.7,561.2,92.1 M601.8,92.1c0-9-6-15.6-14.1-15.6c-8.7,0-14.8,6.6-14.8,15.6s6.2,15.5,14.8,15.5
			C595.7,107.5,601.8,101.1,601.8,92.1"/>
		<path class="st2" d="M621,92.1c0-14.8,12.1-26.6,27.1-26.6c6.5,0,12.5,2.1,17.2,5.7c0.6,0.5,0.7,1.3,0.2,1.9l-5.4,6.2
			c-0.5,0.5-1.2,0.6-1.8,0.2c-2.5-1.9-6-2.9-10-2.9c-9,0-15.7,6.5-15.7,15.6c0,8.8,6.2,15.5,16,15.5c4.2,0,8.4-1.3,11.4-3.5
			c0.6-0.5,1.4-0.3,1.9,0.3l4.7,6.5c0.4,0.6,0.3,1.4-0.3,1.9c-4.9,3.7-11.3,6-18.3,6C633,118.6,621,106.9,621,92.1"/>
		<path class="st2" d="M670.2,92.1c0-14.6,11.4-26.6,26.3-26.6c13.6,0,24.5,11.9,24.5,26.2c0,1.2-0.1,2.4-0.2,3.2
			c-0.1,0.7-0.6,1.2-1.3,1.2H682c1.6,8.1,8.2,12.4,15.9,12.4c4.7,0,9.7-1.3,13.6-3.8c0.6-0.3,1.3-0.1,1.6,0.4l3.5,6.4
			c0.3,0.5,0.1,1.2-0.4,1.5c-5.6,3.6-12,5.5-18.5,5.5C683.2,118.6,670.2,108.9,670.2,92.1 M709.9,87.6c-1.1-7.3-7-12.2-14-12.2
			c-6.6,0-12.4,4.8-13.9,12.2H709.9z"/>
	</g>
</g>
</svg>
